﻿wavelength,1
400,0.011
401,0.015
402,0.018
403,0.022
404,0.024
405,0.026
406,0.026
407,0.025
408,0.023
409,0.021
410,0.019
411,0.017
412,0.016
413,0.016
414,0.016
415,0.016
416,0.017
417,0.017
418,0.017
419,0.017
420,0.017
421,0.018
422,0.020
423,0.022
424,0.023
425,0.025
426,0.025
427,0.026
428,0.026
429,0.027
430,0.029
431,0.034
432,0.042
433,0.052
434,0.063
435,0.075
436,0.083
437,0.085
438,0.081
439,0.072
440,0.061
441,0.050
442,0.040
443,0.034
444,0.030
445,0.027
446,0.025
447,0.023
448,0.021
449,0.020
450,0.019
451,0.018
452,0.017
453,0.017
454,0.016
455,0.016
456,0.016
457,0.016
458,0.016
459,0.015
460,0.014
461,0.014
462,0.013
463,0.013
464,0.013
465,0.014
466,0.015
467,0.017
468,0.019
469,0.023
470,0.027
471,0.033
472,0.039
473,0.045
474,0.048
475,0.048
476,0.046
477,0.040
478,0.034
479,0.028
480,0.024
481,0.022
482,0.022
483,0.022
484,0.023
485,0.023
486,0.023
487,0.022
488,0.022
489,0.021
490,0.021
491,0.021
492,0.021
493,0.021
494,0.022
495,0.022
496,0.023
497,0.023
498,0.024
499,0.025
500,0.025
501,0.026
502,0.027
503,0.030
504,0.036
505,0.045
506,0.057
507,0.069
508,0.078
509,0.081
510,0.079
511,0.071
512,0.060
513,0.046
514,0.035
515,0.026
516,0.022
517,0.020
518,0.019
519,0.020
520,0.021
521,0.021
522,0.022
523,0.022
524,0.022
525,0.021
526,0.020
527,0.019
528,0.019
529,0.019
530,0.020
531,0.022
532,0.026
533,0.030
534,0.034
535,0.038
536,0.040
537,0.041
538,0.040
539,0.039
540,0.040
541,0.045
542,0.058
543,0.085
544,0.117
545,0.150
546,0.179
547,0.192
548,0.188
549,0.167
550,0.142
551,0.112
552,0.081
553,0.061
554,0.049
555,0.042
556,0.037
557,0.033
558,0.030
559,0.028
560,0.026
561,0.025
562,0.026
563,0.029
564,0.036
565,0.048
566,0.062
567,0.078
568,0.094
569,0.106
570,0.112
571,0.111
572,0.110
573,0.110
574,0.118
575,0.135
576,0.160
577,0.189
578,0.207
579,0.212
580,0.199
581,0.171
582,0.138
583,0.103
584,0.082
585,0.081
586,0.105
587,0.149
588,0.210
589,0.260
590,0.305
591,0.315
592,0.303
593,0.273
594,0.225
595,0.178
596,0.141
597,0.111
598,0.090
599,0.079
600,0.070
601,0.064
602,0.057
603,0.051
604,0.046
605,0.042
606,0.039
607,0.037
608,0.035
609,0.034
610,0.033
611,0.033
612,0.032
613,0.033
614,0.033
615,0.035
616,0.036
617,0.039
618,0.042
619,0.045
620,0.049
621,0.052
622,0.054
623,0.056
624,0.057
625,0.056
626,0.054
627,0.053
628,0.052
629,0.050
630,0.049
631,0.047
632,0.044
633,0.040
634,0.036
635,0.032
636,0.028
637,0.026
638,0.025
639,0.025
640,0.025
641,0.025
642,0.025
643,0.024
644,0.024
645,0.023
646,0.022
647,0.021
648,0.020
649,0.019
650,0.018
651,0.018
652,0.018
653,0.018
654,0.018
655,0.019
656,0.020
657,0.022
658,0.023
659,0.023
660,0.023
661,0.022
662,0.021
663,0.019
664,0.018
665,0.018
666,0.020
667,0.025
668,0.032
669,0.040
670,0.048
671,0.053
672,0.055
673,0.051
674,0.045
675,0.037
676,0.029
677,0.023
678,0.019
679,0.018
680,0.017
681,0.017
682,0.017
683,0.017
684,0.017
685,0.016
686,0.016
687,0.016
688,0.016
689,0.016
690,0.017
691,0.017
692,0.017
693,0.017
694,0.017
695,0.016
696,0.015
697,0.015
698,0.015
699,0.015
700,0.015
701,0.015
702,0.015
703,0.014
704,0.013
705,0.013
706,0.013
707,0.013
708,0.013
709,0.013
710,0.013
711,0.013
712,0.013
713,0.013
714,0.013
715,0.014
716,0.014
717,0.015
718,0.015
719,0.015
720,0.015
721,0.014
722,0.014
723,0.013
724,0.012
725,0.011
726,0.011
727,0.010
728,0.010
729,0.009
730,0.009
731,0.009
732,0.009
733,0.009
734,0.009
735,0.010
736,0.010
737,0.010
738,0.010
739,0.011
740,0.011
741,0.011
742,0.011
743,0.011
744,0.011
745,0.010
746,0.010
747,0.010
748,0.010
749,0.010
750,0.010
751,0.010
752,0.010
753,0.011
754,0.011
755,0.011
756,0.012
757,0.012
758,0.012
759,0.012
760,0.012
761,0.012
762,0.013
763,0.014
764,0.015
765,0.017
766,0.019
767,0.021
768,0.022
769,0.021
770,0.020
771,0.020
772,0.018
773,0.016
774,0.015
775,0.013
776,0.013
777,0.012
778,0.012
779,0.012
780,0.012
781,0.013
782,0.013
783,0.013
784,0.013
785,0.013
786,0.013
787,0.012
788,0.012
789,0.011
790,0.010
791,0.010
792,0.009
793,0.009
794,0.009
795,0.010
796,0.010
797,0.011
798,0.011
799,0.011
800,0.011
801,0.011
802,0.011
803,0.010
804,0.010
805,0.010
806,0.010
807,0.010
808,0.010
809,0.010
810,0.010
811,0.011
812,0.013
813,0.017
814,0.027
815,0.047
816,0.078
817,0.114
818,0.151
819,0.180
820,0.193
821,0.184
822,0.175
823,0.118
824,0.080
825,0.046
826,0.027
827,0.016
828,0.013
829,0.012
830,0.012
831,0.012
832,0.012
833,0.012
834,0.012
835,0.012
836,0.012
837,0.011
838,0.011
839,0.011
840,0.011
841,0.012
842,0.013
843,0.014
844,0.014
845,0.014
846,0.014
847,0.013
848,0.013
849,0.012
850,0.012
851,0.011
852,0.010
853,0.010
854,0.010
855,0.010
856,0.010
857,0.010
858,0.010
859,0.010
860,0.010
861,0.010
862,0.010
863,0.010
864,0.010
865,0.011
866,0.011
867,0.011
868,0.011
869,0.011
870,0.011
871,0.012
872,0.012
873,0.013
874,0.013
875,0.014
876,0.014
877,0.015
878,0.015
879,0.014
880,0.014
881,0.014
882,0.014
883,0.014
884,0.014
885,0.014
886,0.014
887,0.015
888,0.015
889,0.015
890,0.015
891,0.015
892,0.015
893,0.015
894,0.016
895,0.016
896,0.017
897,0.018
898,0.018
899,0.019
900,0.019
901,0.020
902,0.021
903,0.023
904,0.026
905,0.028
906,0.029
907,0.029
908,0.029
909,0.028
910,0.027
911,0.026
912,0.025
913,0.026
914,0.026
915,0.026
916,0.026
917,0.026
918,0.026
919,0.026
920,0.025
921,0.025
922,0.024
923,0.022
924,0.021
925,0.019
926,0.018
927,0.017
928,0.016
929,0.016
930,0.015
931,0.015
932,0.015
933,0.016
934,0.017
935,0.018
936,0.019
937,0.020
938,0.021
939,0.022
940,0.022
941,0.022
942,0.021
943,0.021
944,0.020
945,0.019
946,0.019
947,0.020
948,0.021
949,0.021
950,0.021
951,0.020
952,0.018
953,0.017
954,0.015
955,0.014
956,0.013
957,0.013
958,0.013
959,0.013
960,0.014
961,0.014
962,0.015
963,0.016
964,0.017
965,0.017
966,0.018
967,0.018
968,0.017
969,0.017
970,0.017
971,0.017
972,0.018
973,0.020
974,0.021
975,0.021
976,0.020
977,0.018
978,0.016
979,0.015
980,0.014
981,0.014
982,0.015
983,0.017
984,0.017
985,0.017
986,0.016
987,0.015
988,0.014
989,0.012
990,0.012
991,0.012
992,0.012
993,0.012
994,0.012
995,0.013
996,0.013
997,0.014
998,0.014
999,0.014
1000,0.014
1001,0.014
1002,0.014
1003,0.014
1004,0.014
1005,0.014
1006,0.014
1007,0.014
1008,0.015
1009,0.018
1010,0.027
1011,0.042
1012,0.064
1013,0.089
1014,0.106
1015,0.116
1016,0.114
1017,0.102
1018,0.084
1019,0.059
1020,0.039
1021,0.024
1022,0.018
1023,0.016
1024,0.016
1025,0.016
1026,0.015
1027,0.015
1028,0.014
1029,0.014
1030,0.013
1031,0.013
1032,0.013
1033,0.013
1034,0.013
1035,0.013
1036,0.012
1037,0.012
1038,0.012
1039,0.012
1040,0.012
1041,0.012
1042,0.012
1043,0.013
1044,0.013
1045,0.014
1046,0.015
1047,0.016
1048,0.016
1049,0.016
1050,0.016
1051,0.015
1052,0.014
1053,0.013
1054,0.012
1055,0.012
1056,0.012
1057,0.012
1058,0.012
1059,0.011
1060,0.011
1061,0.011
1062,0.011
1063,0.010
1064,0.010
1065,0.010
1066,0.010
1067,0.010
1068,0.010
1069,0.011
1070,0.011
1071,0.012
1072,0.013
1073,0.014
1074,0.014
1075,0.014
1076,0.014
1077,0.013
1078,0.012
1079,0.012
1080,0.011
1081,0.011
1082,0.011
1083,0.011
1084,0.011
1085,0.011
1086,0.011
1087,0.011
1088,0.010
1089,0.010
1090,0.010
1091,0.010
1092,0.010
1093,0.010
1094,0.010
1095,0.010
1096,0.010
1097,0.010
1098,0.010
1099,0.010
1100,0.000